Division,WeightClassKg,Place,Name,Team,BodyweightKg,Best3SquatKg,Best3BenchKg,Best3DeadliftKg,TotalKg,Equipment,Event,Sex,BirthDate
Boys,51.71,1,Corey Casey,Del Valle,50.08,102.06,70.31,127.01,299.37,Single-ply,SBD,M,
Boys,51.71,2,David Hernandez,Smithville,49.71,86.18,47.63,92.99,226.8,Single-ply,SBD,M,
Boys,51.71,DQ,Ayden Green,Jarrell,49.62,83.91,,74.84,,Single-ply,SBD,M,
Boys,51.71,DQ,Matthew Pachicano,Taylor,47.63,54.43,,79.38,,Single-ply,SBD,M,
Boys,55.79,1,Brayden Bromonsky,Kyle Lehman,53.8,226.8,102.06,226.8,555.65,Single-ply,SBD,M,
Boys,55.79,2,Tommy Hession,College Station,54.79,195.04,90.72,181.44,467.2,Single-ply,SBD,M,
Boys,55.79,3,Seydou Kaba,Jarrell,53.8,102.06,61.23,106.59,269.89,Single-ply,SBD,M,
Boys,55.79,4,Clayton Ferguson,Smithville,54.7,79.38,45.36,92.99,217.72,Single-ply,SBD,M,
Boys,59.87,1,Jacob Vasquez,Kyle Lehman,58.42,226.8,102.06,233.6,562.45,Single-ply,SBD,M,
Boys,59.87,2,Eric Esquivel,Kyle Lehman,58.97,174.63,102.06,190.51,467.2,Single-ply,SBD,M,
Boys,59.87,3,Jose Rios,Kyle Lehman,58.79,154.22,88.45,158.76,401.43,Single-ply,SBD,M,
Boys,59.87,4,Calel Henry,Pflugerville Weiss,59.24,124.74,65.77,156.49,347,Single-ply,SBD,M,
Boys,67.13,1,Miguel Ochoa,Taylor,67.13,208.65,102.06,195.04,505.76,Single-ply,SBD,M,
Boys,67.13,2,Christian Jeanes,Kyle Lehman,66.04,174.63,111.13,190.51,476.27,Single-ply,SBD,M,
Boys,67.13,3,Garrett Schlottman,Kyle Lehman,66.86,176.9,83.91,192.78,453.59,Single-ply,SBD,M,
Boys,67.13,4,Gabriel Driscoll,Del Valle,65.5,161.03,92.99,161.03,415.04,Single-ply,SBD,M,
Boys,67.13,5,Ikaika Engleman,Kyle Lehman,63.32,129.27,74.84,172.37,376.48,Single-ply,SBD,M,
Boys,67.13,6,Nathaniel Crayton,Del Valle,64.23,133.81,90.72,151.95,376.48,Single-ply,SBD,M,
Boys,67.13,7,Martinez Adrian,Pflugerville Weiss,64.14,129.27,92.99,145.15,367.41,Single-ply,SBD,M,
Boys,67.13,8,Connor Kalbas,Giddings,62.41,129.27,70.31,124.74,324.32,Single-ply,SBD,M,
Boys,67.13,9,Axel Priolo,Pflugerville Weiss,64.77,88.45,65.77,113.4,267.62,Single-ply,SBD,M,
Boys,67.13,10,Christopher Wehr,Smithville,61.33,90.72,61.23,102.06,254.01,Single-ply,SBD,M,
Boys,67.13,11,David Salas,Jarrell,61.78,90.72,52.16,92.99,235.87,Single-ply,SBD,M,
Boys,67.13,DQ,Cj Gregg,Smithville,62.96,,,,,Single-ply,SBD,M,
Boys,74.84,1,Ethan Hall,College Station,72.94,244.94,124.74,226.8,596.47,Single-ply,SBD,M,
Boys,74.84,2,Diego Macedo,Kyle Lehman,74.12,251.74,129.27,197.31,578.33,Single-ply,SBD,M,
Boys,74.84,3,Noah Zelazny,Kyle Lehman,74.39,165.56,106.59,181.44,453.59,Single-ply,SBD,M,
Boys,74.84,4,Nate Palmer,College Station,74.71,149.69,88.45,158.76,396.89,Single-ply,SBD,M,
Boys,74.84,5,Sebastian Arredondo,Jarrell,72.03,136.08,83.91,158.76,378.75,Single-ply,SBD,M,
Boys,74.84,6,Elijiah Jackson,Pflugerville Weiss,73.57,106.59,61.23,204.12,371.95,Single-ply,SBD,M,
Boys,82.1,1,Daniel Farr,Jarrell,78.29,188.24,113.4,183.7,485.34,Single-ply,SBD,M,
Boys,82.1,2,Kevin Garza,Kyle Lehman,78.47,192.78,102.06,174.63,469.47,Single-ply,SBD,M,
Boys,82.1,3,Vincent Siv,Del Valle,79.74,167.83,115.67,185.97,469.47,Single-ply,SBD,M,
Boys,82.1,4,Geovani Thierry,Jarrell,77.38,154.22,104.33,208.65,467.2,Single-ply,SBD,M,
Boys,82.1,5,Marquise Collins,College Station,82.1,181.44,102.06,181.44,464.93,Single-ply,SBD,M,
Boys,82.1,6,Sam Miller,Pflugerville Weiss,81.47,158.76,92.99,204.12,455.86,Single-ply,SBD,M,
Boys,82.1,7,Noah Baxter,Smithville,78.11,124.74,86.18,176.9,387.82,Single-ply,SBD,M,
Boys,82.1,8,William Monroe,Del Valle,81.83,115.67,86.18,122.47,324.32,Single-ply,SBD,M,
Boys,89.81,1,Caleb Esparza,Kyle Lehman,86.91,290.3,138.35,215.46,644.1,Single-ply,SBD,M,
Boys,89.81,2,Gabriel Ramos,Giddings,87.54,222.26,136.08,208.65,566.99,Single-ply,SBD,M,
Boys,89.81,3,Hector Granados #2,Giddings,86.27,206.38,124.74,192.78,523.9,Single-ply,SBD,M,
Boys,89.81,4,Shane Bellows,College Station,88.09,174.63,129.27,217.72,521.63,Single-ply,SBD,M,
Boys,89.81,5,Andrew Vargas,Del Valle,86.27,183.7,133.81,183.7,501.22,Single-ply,SBD,M,
Boys,89.81,6,Chance Johnson,College Station,83.1,181.44,88.45,183.7,453.59,Single-ply,SBD,M,
Boys,89.81,7,Jose Galan,Giddings,87.63,154.22,102.06,183.7,439.98,Single-ply,SBD,M,
Boys,89.81,8,Moses Buzan,Taylor,83.01,154.22,102.06,156.49,412.77,Single-ply,SBD,M,
Boys,89.81,9,Caden Stockdale,Smithville,87.09,140.61,102.06,165.56,408.23,Single-ply,SBD,M,
Boys,89.81,10,Miguel Grado,Jarrell,83.28,147.42,95.25,163.29,405.97,Single-ply,SBD,M,
Boys,89.81,11,Mark Arnold,Jarrell,88.09,133.81,97.52,142.88,374.21,Single-ply,SBD,M,
Boys,89.81,NS,Issac Zapata,Jarrell,,,,,,Single-ply,SBD,M,
Boys,89.81,DQ,Cullen Dees,Giddings,85.09,206.38,,199.58,,Single-ply,SBD,M,
Boys,89.81,DQ,Joseph Campos,Del Valle,84.82,102.06,,122.47,,Single-ply,SBD,M,
Boys,99.79,1,Tanner Stone,College Station,93.08,222.26,154.22,206.38,582.87,Single-ply,SBD,M,
Boys,99.79,2,Taj Johnson,Del Valle,91.17,170.1,133.81,190.51,494.42,Single-ply,SBD,M,
Boys,99.79,3,Dylan Gattis,Del Valle,97.52,165.56,115.67,208.65,489.88,Single-ply,SBD,M,
Boys,99.79,4,Alan Ahoyt,Del Valle,96.62,165.56,133.81,176.9,476.27,Single-ply,SBD,M,
Boys,99.79,5,Braden Morris,Pflugerville Weiss,96.43,124.74,65.77,176.9,367.41,Single-ply,SBD,M,
Boys,99.79,6,Lord Basnight,Jarrell,95.16,138.35,86.18,138.35,362.87,Single-ply,SBD,M,
Boys,99.79,NS,Jonathen Espinoza,Jarrell,,,,,,Single-ply,SBD,M,
Boys,109.77,1,Esau Ortiz,Taylor,101.79,206.38,163.29,201.85,571.53,Single-ply,SBD,M,
Boys,109.77,2,Clayton Schroeder,Giddings,103.69,222.26,127.01,222.26,571.53,Single-ply,SBD,M,
Boys,109.77,3,Jaden Taylor,Taylor,106.59,219.99,142.88,204.12,566.99,Single-ply,SBD,M,
Boys,109.77,4,Andrew Rodriguez,Giddings,105.51,219.99,140.61,204.12,564.72,Single-ply,SBD,M,
Boys,109.77,5,Mason Rosser,Giddings,100.61,219.99,145.15,197.31,562.45,Single-ply,SBD,M,
Boys,109.77,6,Korbin Johnson,College Station,108.68,217.72,122.47,204.12,544.31,Single-ply,SBD,M,
Boys,124.74,1,Woodrow Beltran,Giddings,118.3,213.19,136.08,204.12,553.38,Single-ply,SBD,M,
Boys,124.74,2,Philip Sedillo,Del Valle,116.03,176.9,136.08,208.65,521.63,Single-ply,SBD,M,
Boys,124.74,3,Robbie Gregg,Smithville,119.93,235.87,115.67,165.56,517.1,Single-ply,SBD,M,
Boys,124.74,4,Kevin Ramirez,Giddings,119.93,151.95,120.2,154.22,426.38,Single-ply,SBD,M,
Boys,124.74,5,Greg Moore,Pflugerville Weiss,118.12,147.42,83.91,176.9,408.23,Single-ply,SBD,M,
Boys,124.74,6,Cody Cedar,Jarrell,122.11,142.88,97.52,136.08,376.48,Single-ply,SBD,M,
Boys,139.71,1,Raul Saucedo,Del Valle,132.54,217.72,147.42,206.38,571.53,Single-ply,SBD,M,
Boys,139.71,2,Brayden Bittick,Smithville,132.54,195.04,104.33,185.97,485.34,Single-ply,SBD,M,
Boys,139.71,3,Wes Trevillion,Pflugerville Weiss,125.74,127.01,72.57,111.13,310.71,Single-ply,SBD,M,
Boys,139.71+,1,Jo'Vaughn Holmes,College Station,144.79,272.16,154.22,204.12,630.49,Single-ply,SBD,M,
Boys,139.71+,2,Jacob Williams,Kyle Lehman,151.32,170.1,129.27,197.31,496.68,Single-ply,SBD,M,
Boys,139.71+,DQ,Pablo Trevino,Smithville,140.7,,,,,Single-ply,SBD,M,
